{
  "type": "platform__schema_column",
  "name": "platform__channel_message_section.platform__plain_text",
  "data": {
    "audited": true,
    "default_data": null,
    "description": "This is a plain text description for this message section that doesn't rely on visual styling to convey meaning. Think push notifications (plain text.)",
    "extended": false,
    "immutable": false,
    "indexed": false,
    "maximum": null,
    "minimum": null,
    "name": "plain_text",
    "namespace": "platform",
    "pattern": null,
    "plural_name": "Plain Texts",
    "precision": null,
    "primary": false,
    "relationship_id": null,
    "required": false,
    "rollup": null,
    "schema_id": "platform__channel_message_section",
    "searchable": false,
    "singular_name": "Plain Text",
    "sort": null,
    "translated": false,
    "type": "text",
    "unique": null
  }
}
