{
  "type": "platform__schema_column",
  "name": "platform__name",
  "data": {
    "id": "8cc7eba1-4bf8-457b-8afd-97f98f6385e5",
    "name": "name",
    "namespace": "platform",
    "audited": true,
    "default_data": null,
    "description": null,
    "extended": false,
    "immutable": false,
    "indexed": false,
    "maximum": null,
    "minimum": null,
    "pattern": null,
    "plural_name": null,
    "precision": null,
    "primary": true,
    "relationship_id": null,
    "required": true,
    "schema_id": "ffc16861-6030-4865-a903-3c12f29f423b",
    "searchable": false,
    "singular_name": "Record Name",
    "sort": 1,
    "translated": false,
    "type": "text",
    "unique": null,
    "rollup": null
  }
}
