{
  "type": "platform__schema_column",
  "name": "platform__user.platform__mobile_phone",
  "data": {
    "audited": false,
    "default_data": null,
    "description": "Mobile phone number for the associated user",
    "extended": false,
    "immutable": false,
    "indexed": false,
    "maximum": null,
    "minimum": null,
    "name": "mobile_phone",
    "namespace": "platform",
    "pattern": null,
    "plural_name": "Mobile phone numbers",
    "precision": null,
    "primary": false,
    "relationship_id": null,
    "required": false,
    "rollup": null,
    "schema_id": "platform__user",
    "searchable": false,
    "singular_name": "Mobile phone number",
    "sort": null,
    "translated": false,
    "type": "text",
    "unique": null
  }
}
