{
  "type": "platform__schema_column",
  "name": "platform__purpose",
  "data": {
    "id": "5fd24382-2109-44c8-95d5-39c56bdcda83",
    "name": "purpose",
    "namespace": "platform",
    "audited": false,
    "default_data": null,
    "description": "What is the intent/focus/goal of this group?",
    "extended": false,
    "immutable": false,
    "indexed": false,
    "maximum": null,
    "minimum": null,
    "pattern": null,
    "plural_name": "Purposes",
    "precision": null,
    "primary": false,
    "relationship_id": null,
    "required": false,
    "schema_id": "2c17cb8a-45cf-4652-a7ad-adf3ca44c1ca",
    "searchable": false,
    "singular_name": "Purpose",
    "sort": null,
    "translated": false,
    "type": "select",
    "unique": null,
    "rollup": null
  }
}
