{
  "type": "platform__schema_column",
  "name": "platform__record_role.platform__access_type",
  "data": {
    "audited": false,
    "default_data": null,
    "description": "Type of access role to be applied: `full`, `edit`, `read`, or `deny`.",
    "extended": false,
    "immutable": false,
    "indexed": false,
    "maximum": null,
    "minimum": null,
    "name": "access_type",
    "namespace": "platform",
    "pattern": null,
    "plural_name": "Access Types",
    "precision": null,
    "primary": false,
    "relationship_id": null,
    "required": false,
    "rollup": null,
    "schema_id": "platform__record_role",
    "searchable": false,
    "singular_name": "Access Type",
    "sort": null,
    "translated": false,
    "type": "select",
    "unique": null
  }
}
