{
  "type": "platform__schema_column",
  "name": "platform__message_id",
  "data": {
    "id": "127b47f2-e5ab-480e-885c-82b6e8128333",
    "name": "message_id",
    "namespace": "platform",
    "audited": false,
    "default_data": null,
    "description": null,
    "extended": false,
    "immutable": true,
    "indexed": false,
    "maximum": null,
    "minimum": null,
    "pattern": null,
    "plural_name": null,
    "precision": null,
    "primary": false,
    "relationship_id": null,
    "required": false,
    "schema_id": "af8382fd-4696-4eaa-8872-3ced93889c61",
    "searchable": false,
    "singular_name": "SMTP Message ID",
    "sort": null,
    "translated": false,
    "type": "text",
    "unique": null,
    "rollup": null
  }
}
