{
  "type": "platform__schema_column",
  "name": "platform__pattern",
  "data": {
    "id": "abcb15b8-8061-4438-bce1-a3993f1c5e08",
    "name": "pattern",
    "namespace": "platform",
    "audited": true,
    "default_data": null,
    "description": "Regex pattern that must match the column data. Only applies to text-type columns.",
    "extended": false,
    "immutable": false,
    "indexed": false,
    "maximum": 1000,
    "minimum": null,
    "pattern": null,
    "plural_name": "Patterns",
    "precision": null,
    "primary": false,
    "relationship_id": null,
    "required": false,
    "schema_id": "de5f26c9-1bd3-42b0-a322-1d338249a40e",
    "searchable": false,
    "singular_name": "Pattern",
    "sort": null,
    "translated": false,
    "type": "text",
    "unique": null,
    "rollup": null
  }
}
