{
  "type": "platform__schema_column",
  "name": "platform__persona.platform__label",
  "data": {
    "audited": false,
    "default_data": null,
    "description": "The name of a given persona as appears in the User Interface",
    "extended": false,
    "immutable": false,
    "indexed": false,
    "maximum": null,
    "minimum": null,
    "name": "label",
    "namespace": "platform",
    "pattern": null,
    "plural_name": "Labels",
    "precision": null,
    "primary": false,
    "relationship_id": null,
    "required": false,
    "rollup": null,
    "schema_id": "platform__persona",
    "searchable": false,
    "singular_name": "Label",
    "sort": null,
    "translated": true,
    "type": "text",
    "unique": null
  }
}
