{
  "type": "platform__schema_column",
  "name": "platform__access_deny",
  "data": {
    "id": "c2987df0-91d1-4ecf-81e5-e8f5ca4e81ea",
    "name": "access_deny",
    "namespace": "platform",
    "audited": true,
    "default_data": null,
    "description": "List of IDs that have `deny` access to this record",
    "extended": true,
    "immutable": false,
    "indexed": false,
    "maximum": 36,
    "minimum": 36,
    "pattern": null,
    "plural_name": null,
    "precision": null,
    "primary": false,
    "relationship_id": null,
    "required": false,
    "schema_id": "ffc16861-6030-4865-a903-3c12f29f423b",
    "searchable": false,
    "singular_name": "Access - Deny",
    "sort": null,
    "translated": false,
    "type": "list",
    "unique": null,
    "rollup": null
  }
}
