{
  "type": "platform__schema_column",
  "name": "platform__decimal",
  "data": {
    "id": "fa2b93bf-34c1-4373-b7db-6f3f116f496f",
    "name": "decimal",
    "namespace": "platform",
    "audited": false,
    "default_data": null,
    "description": null,
    "extended": false,
    "immutable": false,
    "indexed": false,
    "maximum": null,
    "minimum": null,
    "pattern": null,
    "plural_name": null,
    "precision": null,
    "primary": false,
    "relationship_id": null,
    "required": false,
    "schema_id": "c1288ae6-777e-4090-b982-88dad23f3929",
    "searchable": false,
    "singular_name": null,
    "sort": null,
    "translated": false,
    "type": "decimal",
    "unique": null,
    "rollup": null
  }
}
