{
  "type": "platform__schema_column",
  "name": "platform__record.platform__trashed_id",
  "data": {
    "audited": true,
    "default_data": null,
    "description": null,
    "extended": true,
    "immutable": false,
    "indexed": false,
    "maximum": 36,
    "minimum": 36,
    "name": "trashed_id",
    "namespace": "platform",
    "pattern": null,
    "plural_name": null,
    "precision": null,
    "primary": false,
    "relationship_id": null,
    "required": false,
    "rollup": null,
    "schema_id": "platform__record",
    "searchable": false,
    "singular_name": "Trashed Id",
    "sort": null,
    "translated": false,
    "type": "id",
    "unique": null
  }
}
