{
  "type": "platform__schema_column",
  "name": "platform__status",
  "data": {
    "id": "8ef33214-72be-4854-be63-dc50fdb6bb55",
    "name": "status",
    "namespace": "platform",
    "audited": false,
    "default_data": null,
    "description": null,
    "extended": false,
    "immutable": false,
    "indexed": false,
    "maximum": null,
    "minimum": null,
    "pattern": null,
    "plural_name": null,
    "precision": null,
    "primary": false,
    "relationship_id": null,
    "required": false,
    "schema_id": "d448d2ee-7415-4084-ba7e-43fa85ba57ed",
    "searchable": false,
    "singular_name": null,
    "sort": null,
    "translated": false,
    "type": "text",
    "unique": null,
    "rollup": null
  }
}
