{
  "type": "platform__schema_column",
  "name": "platform__children",
  "data": {
    "id": "a4cefbbe-02a1-4024-8171-4eca389f62a7",
    "name": "children",
    "namespace": "platform",
    "audited": false,
    "default_data": null,
    "description": null,
    "extended": false,
    "immutable": false,
    "indexed": false,
    "maximum": null,
    "minimum": null,
    "pattern": null,
    "plural_name": null,
    "precision": null,
    "primary": false,
    "relationship_id": null,
    "required": false,
    "schema_id": "8622d2cd-bcfe-4686-b82c-c9d13731606b",
    "searchable": false,
    "singular_name": null,
    "sort": null,
    "translated": false,
    "type": "rollup",
    "unique": null,
    "rollup": {
      "column": "parent_id",
      "schema": "rollup_child",
      "target": "id",
      "operation": "count"
    }
  }
}
