{
  "type": "platform__schema_column",
  "name": "platform__postal_code",
  "data": {
    "id": "ec9a8dbf-1546-4cdf-8063-6fd25638e9a6",
    "name": "postal_code",
    "namespace": "platform",
    "audited": false,
    "default_data": null,
    "description": "Postal code for the associated user",
    "extended": false,
    "immutable": false,
    "indexed": false,
    "maximum": null,
    "minimum": null,
    "pattern": null,
    "plural_name": "Postal codes",
    "precision": null,
    "primary": false,
    "relationship_id": null,
    "required": false,
    "schema_id": "9c5c1070-ab5c-424b-b8ba-b07f817b1855",
    "searchable": false,
    "singular_name": "Postal code",
    "sort": null,
    "translated": false,
    "type": "text",
    "unique": null,
    "rollup": null
  }
}
