{
  "type": "platform__schema_column",
  "name": "platform__file_version.platform__file_id",
  "data": {
    "audited": true,
    "default_data": null,
    "description": "Enter a description!",
    "extended": false,
    "immutable": true,
    "indexed": false,
    "maximum": null,
    "minimum": null,
    "name": "file_id",
    "namespace": "platform",
    "pattern": null,
    "plural_name": "File Ids",
    "precision": null,
    "primary": false,
    "relationship_id": "platform__file",
    "required": true,
    "rollup": null,
    "schema_id": "platform__file_version",
    "searchable": false,
    "singular_name": "File Id",
    "sort": null,
    "translated": false,
    "type": "master",
    "unique": null
  }
}
