{
  "type": "platform__schema_column",
  "name": "platform__mail.platform__smtp_accepted",
  "data": {
    "audited": false,
    "default_data": null,
    "description": null,
    "extended": false,
    "immutable": true,
    "indexed": false,
    "maximum": null,
    "minimum": null,
    "name": "smtp_accepted",
    "namespace": "platform",
    "pattern": null,
    "plural_name": null,
    "precision": null,
    "primary": false,
    "relationship_id": null,
    "required": false,
    "rollup": null,
    "schema_id": "platform__mail",
    "searchable": false,
    "singular_name": null,
    "sort": null,
    "translated": false,
    "type": "list",
    "unique": null
  }
}
