{
  "type": "platform__schema_column",
  "name": "platform__language",
  "data": {
    "id": "6933cfbe-7dff-45b3-b8e3-100da4f9f8ff",
    "name": "language",
    "namespace": "platform",
    "audited": false,
    "default_data": "text",
    "description": null,
    "extended": false,
    "immutable": false,
    "indexed": false,
    "maximum": null,
    "minimum": null,
    "pattern": null,
    "plural_name": "Languages",
    "precision": null,
    "primary": false,
    "relationship_id": null,
    "required": false,
    "schema_id": "a3a4d10f-559c-424d-83d1-3ed1cb28d8a9",
    "searchable": false,
    "singular_name": "Language",
    "sort": null,
    "translated": false,
    "type": "select",
    "unique": null,
    "rollup": null
  }
}
