{
  "type": "platform__schema_column",
  "name": "platform__schema_column.platform__pattern",
  "data": {
    "audited": true,
    "default_data": null,
    "description": "Regex pattern that must match the column data. Only applies to text-type columns.",
    "extended": false,
    "immutable": false,
    "indexed": false,
    "maximum": 1000,
    "minimum": null,
    "name": "pattern",
    "namespace": "platform",
    "pattern": null,
    "plural_name": "Patterns",
    "precision": null,
    "primary": false,
    "relationship_id": null,
    "required": false,
    "rollup": null,
    "schema_id": "platform__schema_column",
    "searchable": false,
    "singular_name": "Pattern",
    "sort": null,
    "translated": false,
    "type": "text",
    "unique": null
  }
}
