{
  "type": "platform__schema_column",
  "name": "platform__title",
  "data": {
    "id": "b79538c2-e3ee-4241-b4d8-38d21512fc7d",
    "name": "title",
    "namespace": "platform",
    "audited": true,
    "default_data": null,
    "description": "The title of this message section that gets displayed at the top of the section.",
    "extended": false,
    "immutable": false,
    "indexed": false,
    "maximum": null,
    "minimum": null,
    "pattern": null,
    "plural_name": "Titles",
    "precision": null,
    "primary": false,
    "relationship_id": null,
    "required": false,
    "schema_id": "aac69b86-ba55-4eda-a830-b9179bce5b0c",
    "searchable": false,
    "singular_name": "Title",
    "sort": null,
    "translated": false,
    "type": "text",
    "unique": null,
    "rollup": null
  }
}
