{
  "type": "platform__schema_column",
  "name": "platform__channel.platform__locked_time",
  "data": {
    "audited": true,
    "default_data": null,
    "description": "This is the time at which the channel was locked from allowing further messages.",
    "extended": false,
    "immutable": false,
    "indexed": false,
    "maximum": null,
    "minimum": null,
    "name": "locked_time",
    "namespace": "platform",
    "pattern": null,
    "plural_name": "Locked Times",
    "precision": null,
    "primary": false,
    "relationship_id": null,
    "required": false,
    "rollup": null,
    "schema_id": "platform__channel",
    "searchable": false,
    "singular_name": "Locked Time",
    "sort": null,
    "translated": false,
    "type": "datetime",
    "unique": null
  }
}
