{
  "type": "platform__schema_column",
  "name": "platform__errors",
  "data": {
    "id": "f837b1c3-7643-4057-9fb6-3ecceadec515",
    "name": "errors",
    "namespace": "platform",
    "audited": false,
    "default_data": null,
    "description": null,
    "extended": false,
    "immutable": false,
    "indexed": false,
    "maximum": null,
    "minimum": null,
    "pattern": null,
    "plural_name": null,
    "precision": null,
    "primary": false,
    "relationship_id": null,
    "required": false,
    "schema_id": "4fefb11c-9154-42cb-aff5-c1ce9b1d6dc4",
    "searchable": false,
    "singular_name": null,
    "sort": null,
    "translated": false,
    "type": "json",
    "unique": null,
    "rollup": null
  }
}
