{
  "type": "platform__schema_column",
  "name": "platform__method",
  "data": {
    "id": "ce9e8af0-c9bb-420f-95c7-883045e18403",
    "name": "method",
    "namespace": "platform",
    "audited": false,
    "default_data": null,
    "description": null,
    "extended": false,
    "immutable": false,
    "indexed": false,
    "maximum": null,
    "minimum": null,
    "pattern": null,
    "plural_name": null,
    "precision": null,
    "primary": false,
    "relationship_id": null,
    "required": false,
    "schema_id": "37a8b015-b424-43d5-ba40-1e1daf01d6d0",
    "searchable": false,
    "singular_name": null,
    "sort": null,
    "translated": false,
    "type": "select",
    "unique": null,
    "rollup": null
  }
}
