{
  "type": "platform__schema_column",
  "name": "platform__transport",
  "data": {
    "id": "8e7a88ad-40db-4779-946b-b2d2a3c07004",
    "name": "transport",
    "namespace": "platform",
    "audited": true,
    "default_data": "smtp",
    "description": null,
    "extended": false,
    "immutable": false,
    "indexed": false,
    "maximum": null,
    "minimum": null,
    "pattern": null,
    "plural_name": "Transport Types",
    "precision": null,
    "primary": false,
    "relationship_id": null,
    "required": true,
    "schema_id": "af8382fd-4696-4eaa-8872-3ced93889c61",
    "searchable": false,
    "singular_name": "Transport Type",
    "sort": null,
    "translated": false,
    "type": "select",
    "unique": null,
    "rollup": null
  }
}
