{
  "type": "platform__schema_column",
  "name": "platform__integer",
  "data": {
    "id": "796215a5-cb45-41ca-90e2-ed617c9c6e60",
    "name": "integer",
    "namespace": "platform",
    "audited": false,
    "default_data": null,
    "description": null,
    "extended": false,
    "immutable": false,
    "indexed": false,
    "maximum": null,
    "minimum": null,
    "pattern": null,
    "plural_name": null,
    "precision": null,
    "primary": false,
    "relationship_id": null,
    "required": false,
    "schema_id": "c1288ae6-777e-4090-b982-88dad23f3929",
    "searchable": false,
    "singular_name": null,
    "sort": null,
    "translated": false,
    "type": "integer",
    "unique": null,
    "rollup": null
  }
}
