{
  "type": "platform__schema_column",
  "name": "platform__instance_id",
  "data": {
    "id": "24d6a177-4fce-4d98-b244-30e7dd49a1a2",
    "name": "instance_id",
    "namespace": "platform",
    "audited": false,
    "default_data": null,
    "description": null,
    "extended": false,
    "immutable": true,
    "indexed": true,
    "maximum": 36,
    "minimum": 36,
    "pattern": null,
    "plural_name": "Instances",
    "precision": null,
    "primary": false,
    "relationship_id": "a06732c4-f60a-42de-a46b-989767f6ade2",
    "required": true,
    "schema_id": "6f55107e-6d5e-461e-a7f5-b23ffe25f4f4",
    "searchable": false,
    "singular_name": "Instance",
    "sort": null,
    "translated": false,
    "type": "master",
    "unique": null,
    "rollup": null
  }
}
