{
  "type": "platform__schema_column",
  "name": "platform__precision",
  "data": {
    "id": "9b4f5c5d-6aba-49c5-861a-fac3d8d99051",
    "name": "precision",
    "namespace": "platform",
    "audited": true,
    "default_data": null,
    "description": null,
    "extended": false,
    "immutable": false,
    "indexed": false,
    "maximum": null,
    "minimum": 18,
    "pattern": null,
    "plural_name": null,
    "precision": null,
    "primary": false,
    "relationship_id": null,
    "required": false,
    "schema_id": "de5f26c9-1bd3-42b0-a322-1d338249a40e",
    "searchable": false,
    "singular_name": "Precision",
    "sort": null,
    "translated": false,
    "type": "integer",
    "unique": null,
    "rollup": null
  }
}
