{
  "type": "platform__schema_column",
  "name": "platform__minimum",
  "data": {
    "id": "c06add83-420e-4699-995d-6d9c2b0959d9",
    "name": "minimum",
    "namespace": "platform",
    "audited": true,
    "default_data": null,
    "description": null,
    "extended": false,
    "immutable": false,
    "indexed": false,
    "maximum": null,
    "minimum": null,
    "pattern": null,
    "plural_name": null,
    "precision": null,
    "primary": false,
    "relationship_id": null,
    "required": false,
    "schema_id": "de5f26c9-1bd3-42b0-a322-1d338249a40e",
    "searchable": false,
    "singular_name": "Minimum Value",
    "sort": null,
    "translated": false,
    "type": "integer",
    "unique": null,
    "rollup": null
  }
}
