{
  "type": "platform__schema_column",
  "name": "platform__user_identity.platform__user_id",
  "data": {
    "audited": false,
    "default_data": null,
    "description": null,
    "extended": false,
    "immutable": true,
    "indexed": true,
    "maximum": 36,
    "minimum": 36,
    "name": "user_id",
    "namespace": "platform",
    "pattern": null,
    "plural_name": null,
    "precision": null,
    "primary": false,
    "relationship_id": "platform__user",
    "required": true,
    "rollup": null,
    "schema_id": "platform__user_identity",
    "searchable": false,
    "singular_name": null,
    "sort": null,
    "translated": false,
    "type": "master",
    "unique": null
  }
}
