{
  "type": "platform__schema_column",
  "name": "platform__data",
  "data": {
    "id": "c27cc80b-887d-4808-84c9-4daeed1eb329",
    "name": "data",
    "namespace": "platform",
    "audited": false,
    "default_data": null,
    "description": null,
    "extended": false,
    "immutable": false,
    "indexed": false,
    "maximum": null,
    "minimum": null,
    "pattern": null,
    "plural_name": null,
    "precision": null,
    "primary": false,
    "relationship_id": null,
    "required": false,
    "schema_id": "4e20a2dc-7cbf-46e4-ab4b-278cb17fd945",
    "searchable": false,
    "singular_name": null,
    "sort": null,
    "translated": false,
    "type": "text",
    "unique": null,
    "rollup": null
  }
}
