{
  "type": "platform__schema_column",
  "name": "platform__idp_login_url",
  "data": {
    "id": "940cf576-2a47-461f-aac6-febc5690c636",
    "name": "idp_login_url",
    "namespace": "platform",
    "audited": false,
    "default_data": null,
    "description": null,
    "extended": false,
    "immutable": false,
    "indexed": false,
    "maximum": null,
    "minimum": null,
    "pattern": null,
    "plural_name": null,
    "precision": null,
    "primary": false,
    "relationship_id": null,
    "required": false,
    "schema_id": "0eb50b9f-e9a7-451f-9f95-d1621dbdb0df",
    "searchable": false,
    "singular_name": null,
    "sort": null,
    "translated": false,
    "type": "text",
    "unique": null,
    "rollup": null
  }
}
