{
  "type": "platform__schema_column",
  "name": "platform__created_id",
  "data": {
    "id": "e3a024f6-de60-430b-8b14-b3e4d0cc64dd",
    "name": "created_id",
    "namespace": "platform",
    "audited": false,
    "default_data": null,
    "description": null,
    "extended": true,
    "immutable": true,
    "indexed": true,
    "maximum": 36,
    "minimum": 36,
    "pattern": null,
    "plural_name": null,
    "precision": null,
    "primary": false,
    "relationship_id": null,
    "required": true,
    "schema_id": "ffc16861-6030-4865-a903-3c12f29f423b",
    "searchable": false,
    "singular_name": "Created Id",
    "sort": null,
    "translated": false,
    "type": "id",
    "unique": null,
    "rollup": null
  }
}
