{
  "type": "platform__schema_column",
  "name": "platform__rollup.platform__integer_avg",
  "data": {
    "audited": false,
    "default_data": "parent_id:avg:integer",
    "description": null,
    "extended": false,
    "immutable": false,
    "indexed": false,
    "maximum": null,
    "minimum": null,
    "name": "integer_avg",
    "namespace": "platform",
    "pattern": null,
    "plural_name": null,
    "precision": null,
    "primary": false,
    "relationship_id": "platform__rollup_child",
    "required": false,
    "rollup": null,
    "schema_id": "platform__rollup",
    "searchable": false,
    "singular_name": null,
    "sort": null,
    "translated": false,
    "type": "rollup",
    "unique": null
  }
}
