{
  "type": "platform__schema_column",
  "name": "platform__user_persona.platform__persona",
  "data": {
    "audited": false,
    "default_data": null,
    "description": null,
    "extended": false,
    "immutable": false,
    "indexed": false,
    "maximum": null,
    "minimum": null,
    "name": "persona",
    "namespace": "platform",
    "pattern": null,
    "plural_name": "Personas",
    "precision": null,
    "primary": false,
    "relationship_id": "platform__persona",
    "required": false,
    "rollup": null,
    "schema_id": "platform__user_persona",
    "searchable": false,
    "singular_name": "Persona",
    "sort": null,
    "translated": false,
    "type": "lookup",
    "unique": null
  }
}
