{
  "type": "platform__schema_column",
  "name": "platform__rollup.platform__children",
  "data": {
    "audited": false,
    "default_data": null,
    "description": null,
    "extended": false,
    "immutable": false,
    "indexed": false,
    "maximum": null,
    "minimum": null,
    "name": "children",
    "namespace": "platform",
    "pattern": null,
    "plural_name": null,
    "precision": null,
    "primary": false,
    "relationship_id": null,
    "required": false,
    "rollup": {
      "column": "parent_id",
      "schema": "rollup_child",
      "target": "id",
      "operation": "count"
    },
    "schema_id": "platform__rollup",
    "searchable": false,
    "singular_name": null,
    "sort": null,
    "translated": false,
    "type": "rollup",
    "unique": null
  }
}
