{
  "type": "platform__schema_column",
  "name": "platform__feed_item.platform__mentions",
  "data": {
    "audited": false,
    "default_data": null,
    "description": "Contains the `@mention` data from the feed item text body.",
    "extended": false,
    "immutable": false,
    "indexed": false,
    "maximum": null,
    "minimum": null,
    "name": "mentions",
    "namespace": "platform",
    "pattern": null,
    "plural_name": "Mentions",
    "precision": null,
    "primary": false,
    "relationship_id": null,
    "required": false,
    "rollup": null,
    "schema_id": "platform__feed_item",
    "searchable": false,
    "singular_name": "Mentions",
    "sort": null,
    "translated": false,
    "type": "list",
    "unique": null
  }
}
