{
  "type": "platform__schema_column",
  "name": "platform__integer_min",
  "data": {
    "id": "e47214aa-aee4-4c40-9c94-fa59425223c1",
    "name": "integer_min",
    "namespace": "platform",
    "audited": false,
    "default_data": "parent_id:min:integer",
    "description": null,
    "extended": false,
    "immutable": false,
    "indexed": false,
    "maximum": null,
    "minimum": null,
    "pattern": null,
    "plural_name": null,
    "precision": null,
    "primary": false,
    "relationship_id": "c1288ae6-777e-4090-b982-88dad23f3929",
    "required": false,
    "schema_id": "8622d2cd-bcfe-4686-b82c-c9d13731606b",
    "searchable": false,
    "singular_name": null,
    "sort": null,
    "translated": false,
    "type": "rollup",
    "unique": null,
    "rollup": null
  }
}
