{
  "type": "platform__schema_column",
  "name": "platform__record_change.platform__schema_id",
  "data": {
    "audited": false,
    "default_data": null,
    "description": null,
    "extended": false,
    "immutable": false,
    "indexed": true,
    "maximum": null,
    "minimum": null,
    "name": "schema_id",
    "namespace": "platform",
    "pattern": null,
    "plural_name": null,
    "precision": null,
    "primary": false,
    "relationship_id": null,
    "required": true,
    "rollup": null,
    "schema_id": "platform__record_change",
    "searchable": false,
    "singular_name": null,
    "sort": null,
    "translated": false,
    "type": "id",
    "unique": null
  }
}
