{
  "type": "platform__schema_column",
  "name": "platform__channel_member.platform__channel",
  "data": {
    "audited": true,
    "default_data": null,
    "description": "This describes that channel for which this membership belongs to.",
    "extended": false,
    "immutable": true,
    "indexed": true,
    "maximum": null,
    "minimum": null,
    "name": "channel",
    "namespace": "platform",
    "pattern": null,
    "plural_name": "Channels",
    "precision": null,
    "primary": false,
    "relationship_id": "platform__channel",
    "required": true,
    "rollup": null,
    "schema_id": "platform__channel_member",
    "searchable": false,
    "singular_name": "Channel",
    "sort": null,
    "translated": false,
    "type": "master",
    "unique": null
  }
}
