{
  "type": "platform__schema_column",
  "name": "platform__parent_id",
  "data": {
    "id": "ffeb54f2-197b-499e-bdc2-3c1515d70175",
    "name": "parent_id",
    "namespace": "platform",
    "audited": false,
    "default_data": null,
    "description": null,
    "extended": false,
    "immutable": true,
    "indexed": false,
    "maximum": null,
    "minimum": null,
    "pattern": null,
    "plural_name": null,
    "precision": null,
    "primary": false,
    "relationship_id": "8622d2cd-bcfe-4686-b82c-c9d13731606b",
    "required": true,
    "schema_id": "c1288ae6-777e-4090-b982-88dad23f3929",
    "searchable": false,
    "singular_name": null,
    "sort": null,
    "translated": false,
    "type": "master",
    "unique": null,
    "rollup": null
  }
}
