{
  "type": "platform__schema_column",
  "name": "platform__column",
  "data": {
    "id": "3f7dd174-a339-44f2-b0ae-d6e56fe5d375",
    "name": "column",
    "namespace": "platform",
    "audited": false,
    "default_data": null,
    "description": null,
    "extended": false,
    "immutable": false,
    "indexed": false,
    "maximum": null,
    "minimum": null,
    "pattern": null,
    "plural_name": null,
    "precision": null,
    "primary": false,
    "relationship_id": null,
    "required": false,
    "schema_id": "a5335574-1764-47ae-bf13-485ac9eb8df1",
    "searchable": false,
    "singular_name": null,
    "sort": null,
    "translated": false,
    "type": "text",
    "unique": null,
    "rollup": null
  }
}
