{
  "type": "platform__schema_column",
  "name": "platform__schema.platform__stability",
  "data": {
    "audited": true,
    "default_data": null,
    "description": null,
    "extended": false,
    "immutable": false,
    "indexed": false,
    "maximum": null,
    "minimum": null,
    "name": "stability",
    "namespace": "platform",
    "pattern": null,
    "plural_name": null,
    "precision": null,
    "primary": false,
    "relationship_id": null,
    "required": false,
    "rollup": null,
    "schema_id": "platform__schema",
    "searchable": false,
    "singular_name": "Stability",
    "sort": null,
    "translated": false,
    "type": "select",
    "unique": null
  }
}
