{
  "type": "platform__schema_column",
  "name": "platform__package_id",
  "data": {
    "id": "3e17e011-1ad4-4c72-bd2e-919f8ca987e0",
    "name": "package_id",
    "namespace": "platform",
    "audited": false,
    "default_data": null,
    "description": null,
    "extended": false,
    "immutable": true,
    "indexed": false,
    "maximum": null,
    "minimum": null,
    "pattern": null,
    "plural_name": null,
    "precision": null,
    "primary": false,
    "relationship_id": "75165261-f0d1-460d-9404-c7a55d3dd471",
    "required": true,
    "schema_id": "4e20a2dc-7cbf-46e4-ab4b-278cb17fd945",
    "searchable": false,
    "singular_name": null,
    "sort": null,
    "translated": false,
    "type": "master",
    "unique": null,
    "rollup": null
  }
}
