{
  "type": "platform__schema_column",
  "name": "platform__last_name",
  "data": {
    "id": "af2d298b-4bc3-483a-8833-6a3c2360f514",
    "name": "last_name",
    "namespace": "platform",
    "audited": false,
    "default_data": null,
    "description": "Last name for user account.",
    "extended": false,
    "immutable": false,
    "indexed": true,
    "maximum": 50,
    "minimum": 1,
    "pattern": null,
    "plural_name": "Last names",
    "precision": null,
    "primary": false,
    "relationship_id": null,
    "required": false,
    "schema_id": "9c5c1070-ab5c-424b-b8ba-b07f817b1855",
    "searchable": false,
    "singular_name": "Last name",
    "sort": null,
    "translated": false,
    "type": "text",
    "unique": null,
    "rollup": null
  }
}
