{
  "type": "platform__schema_column",
  "name": "platform__feed_item.platform__schema_id",
  "data": {
    "audited": false,
    "default_data": null,
    "description": null,
    "extended": false,
    "immutable": true,
    "indexed": false,
    "maximum": null,
    "minimum": null,
    "name": "schema_id",
    "namespace": "platform",
    "pattern": null,
    "plural_name": "Schema IDs",
    "precision": null,
    "primary": false,
    "relationship_id": null,
    "required": true,
    "rollup": null,
    "schema_id": "platform__feed_item",
    "searchable": false,
    "singular_name": "Schema ID",
    "sort": null,
    "translated": false,
    "type": "id",
    "unique": null
  }
}
