{
  "type": "platform__schema_column",
  "name": "platform__channel_message.platform__message",
  "data": {
    "audited": true,
    "default_data": null,
    "description": "Enter a description!",
    "extended": false,
    "immutable": false,
    "indexed": false,
    "maximum": null,
    "minimum": null,
    "name": "message",
    "namespace": "platform",
    "pattern": null,
    "plural_name": "Messages",
    "precision": null,
    "primary": false,
    "relationship_id": null,
    "required": true,
    "rollup": null,
    "schema_id": "platform__channel_message",
    "searchable": false,
    "singular_name": "Message",
    "sort": null,
    "translated": false,
    "type": "text",
    "unique": null
  }
}
