{
  "type": "platform__schema_column",
  "name": "platform__trashed_date",
  "data": {
    "id": "48d30c56-36b2-4f97-b4a8-4d1f095c2f6d",
    "name": "trashed_date",
    "namespace": "platform",
    "audited": true,
    "default_data": null,
    "description": null,
    "extended": true,
    "immutable": false,
    "indexed": false,
    "maximum": null,
    "minimum": null,
    "pattern": null,
    "plural_name": null,
    "precision": null,
    "primary": false,
    "relationship_id": null,
    "required": false,
    "schema_id": "ffc16861-6030-4865-a903-3c12f29f423b",
    "searchable": false,
    "singular_name": "Trashed Date",
    "sort": null,
    "translated": false,
    "type": "datetime",
    "unique": null,
    "rollup": null
  }
}
