{
  "type": "platform__schema_column",
  "name": "platform__file_version.platform__storage_path",
  "data": {
    "audited": true,
    "default_data": null,
    "description": "The path to the underlying file data on the storage provider.",
    "extended": false,
    "immutable": false,
    "indexed": false,
    "maximum": null,
    "minimum": null,
    "name": "storage_path",
    "namespace": "platform",
    "pattern": null,
    "plural_name": "Storage Paths",
    "precision": null,
    "primary": false,
    "relationship_id": null,
    "required": false,
    "rollup": null,
    "schema_id": "platform__file_version",
    "searchable": false,
    "singular_name": "Storage Path",
    "sort": null,
    "translated": false,
    "type": "text",
    "unique": null
  }
}
