{
  "type": "platform__schema_column",
  "name": "platform__static",
  "data": {
    "id": "613a26d6-6023-4bdb-a86e-5665aa3ef623",
    "name": "static",
    "namespace": "platform",
    "audited": true,
    "default_data": null,
    "description": "A static schema is one that cannot have fields added or removed. Schemas are usually marked as static when they are tied to a fixed database structure, and are not intended to be user/admin configurable.",
    "extended": false,
    "immutable": false,
    "indexed": false,
    "maximum": null,
    "minimum": null,
    "pattern": null,
    "plural_name": null,
    "precision": null,
    "primary": false,
    "relationship_id": null,
    "required": false,
    "schema_id": "340c551f-0c9e-438b-9db9-ba621d860d19",
    "searchable": false,
    "singular_name": "Static?",
    "sort": null,
    "translated": false,
    "type": "boolean",
    "unique": null,
    "rollup": null
  }
}
