{
  "type": "platform__schema_column",
  "name": "platform__channel_member.platform__last_message_date",
  "data": {
    "audited": false,
    "default_data": null,
    "description": "This is the date of the last message by this user in the scope of the related channel.",
    "extended": false,
    "immutable": false,
    "indexed": false,
    "maximum": null,
    "minimum": null,
    "name": "last_message_date",
    "namespace": "platform",
    "pattern": null,
    "plural_name": "Last Message Dates",
    "precision": null,
    "primary": false,
    "relationship_id": null,
    "required": false,
    "rollup": null,
    "schema_id": "platform__channel_member",
    "searchable": false,
    "singular_name": "Last Message Date",
    "sort": null,
    "translated": false,
    "type": "datetime",
    "unique": null
  }
}
