{
  "type": "platform__schema_column",
  "name": "stripe__charge.stripe__metadata",
  "data": {
    "audited": false,
    "default_data": null,
    "description": "Set of key-value pairs that you can attach to an object. This can be useful for storing additional information about the object in a structured format.",
    "extended": false,
    "immutable": false,
    "indexed": false,
    "maximum": null,
    "minimum": null,
    "name": "metadata",
    "namespace": "stripe",
    "pattern": null,
    "plural_name": null,
    "precision": null,
    "primary": false,
    "relationship_id": null,
    "required": false,
    "rollup": null,
    "schema_id": "stripe__charge",
    "searchable": false,
    "singular_name": null,
    "sort": null,
    "translated": false,
    "type": "json",
    "unique": null
  }
}
