{
  "type": "platform__schema_column",
  "name": "stripe__redirect",
  "data": {
    "id": "7cfea013-ae37-437f-ba2c-2289bfd919fa",
    "name": "redirect",
    "namespace": "stripe",
    "audited": false,
    "default_data": null,
    "description": null,
    "extended": false,
    "immutable": false,
    "indexed": false,
    "maximum": null,
    "minimum": null,
    "pattern": null,
    "plural_name": null,
    "precision": null,
    "primary": false,
    "relationship_id": null,
    "required": false,
    "schema_id": "4c0d3bed-4ef8-4be3-8f36-70ad74d4419c",
    "searchable": false,
    "singular_name": null,
    "sort": null,
    "translated": false,
    "type": "json",
    "unique": null,
    "rollup": null
  }
}
