{
  "type": "platform__schema_column",
  "name": "stripe__outcome",
  "data": {
    "id": "2a12113e-2e6f-4b39-adb0-87e5aa6e33d5",
    "name": "outcome",
    "namespace": "stripe",
    "audited": false,
    "default_data": null,
    "description": "Details about whether the payment was accepted, and why. See understanding declines for details.",
    "extended": false,
    "immutable": false,
    "indexed": false,
    "maximum": null,
    "minimum": null,
    "pattern": null,
    "plural_name": null,
    "precision": null,
    "primary": false,
    "relationship_id": null,
    "required": false,
    "schema_id": "eea3d47c-710f-4930-b293-9b994152c190",
    "searchable": false,
    "singular_name": null,
    "sort": null,
    "translated": false,
    "type": "json",
    "unique": null,
    "rollup": null
  }
}
