{
  "type": "platform__schema_column",
  "name": "stripe__code_verification",
  "data": {
    "id": "8a68a5bf-9c2b-4a9f-921e-d6a9c587e8e5",
    "name": "code_verification",
    "namespace": "stripe",
    "audited": false,
    "default_data": null,
    "description": null,
    "extended": true,
    "immutable": false,
    "indexed": false,
    "maximum": null,
    "minimum": null,
    "pattern": null,
    "plural_name": null,
    "precision": null,
    "primary": false,
    "relationship_id": null,
    "required": false,
    "schema_id": "4c0d3bed-4ef8-4be3-8f36-70ad74d4419c",
    "searchable": false,
    "singular_name": null,
    "sort": null,
    "translated": false,
    "type": "json",
    "unique": null,
    "rollup": null
  }
}
