{
  "type": "platform__schema_column",
  "name": "stripe__charge.stripe__source_transfer",
  "data": {
    "audited": false,
    "default_data": null,
    "description": "The transfer ID which created this charge. Only present if the charge came from another Stripe account. See the Connect documentation for details.",
    "extended": false,
    "immutable": false,
    "indexed": false,
    "maximum": null,
    "minimum": null,
    "name": "source_transfer",
    "namespace": "stripe",
    "pattern": null,
    "plural_name": null,
    "precision": null,
    "primary": false,
    "relationship_id": null,
    "required": false,
    "rollup": null,
    "schema_id": "stripe__charge",
    "searchable": false,
    "singular_name": null,
    "sort": null,
    "translated": false,
    "type": "text",
    "unique": null
  }
}
