{
  "type": "platform__schema_column",
  "name": "stripe__charge.stripe__source",
  "data": {
    "audited": false,
    "default_data": null,
    "description": "For most Stripe users, the source of every charge is a credit or debit card. This hash is then the card object describing that card.",
    "extended": false,
    "immutable": false,
    "indexed": false,
    "maximum": null,
    "minimum": null,
    "name": "source",
    "namespace": "stripe",
    "pattern": null,
    "plural_name": null,
    "precision": null,
    "primary": false,
    "relationship_id": null,
    "required": false,
    "rollup": null,
    "schema_id": "stripe__charge",
    "searchable": false,
    "singular_name": null,
    "sort": null,
    "translated": false,
    "type": "json",
    "unique": null
  }
}
