{
  "type": "platform__schema_column",
  "name": "stripe__charge.stripe__livemode",
  "data": {
    "audited": false,
    "default_data": null,
    "description": "Has the value true if the object exists in live mode or the value false if the object exists in test mode.",
    "extended": false,
    "immutable": false,
    "indexed": false,
    "maximum": null,
    "minimum": null,
    "name": "livemode",
    "namespace": "stripe",
    "pattern": null,
    "plural_name": null,
    "precision": null,
    "primary": false,
    "relationship_id": null,
    "required": false,
    "rollup": null,
    "schema_id": "stripe__charge",
    "searchable": false,
    "singular_name": null,
    "sort": null,
    "translated": false,
    "type": "boolean",
    "unique": null
  }
}
