{
  "type": "platform__schema_column",
  "name": "stripe__charge.stripe__balance_transaction",
  "data": {
    "audited": false,
    "default_data": null,
    "description": "ID of the balance transaction that describes the impact of this charge on your account balance (not including refunds or disputes).",
    "extended": false,
    "immutable": false,
    "indexed": false,
    "maximum": null,
    "minimum": null,
    "name": "balance_transaction",
    "namespace": "stripe",
    "pattern": null,
    "plural_name": null,
    "precision": null,
    "primary": false,
    "relationship_id": null,
    "required": false,
    "rollup": null,
    "schema_id": "stripe__charge",
    "searchable": false,
    "singular_name": null,
    "sort": null,
    "translated": false,
    "type": "text",
    "unique": null
  }
}
