{
  "type": "platform__schema_column",
  "name": "stripe__on_behalf_of",
  "data": {
    "id": "c695b1d1-43b3-49e9-8eda-cc7fc255f304",
    "name": "on_behalf_of",
    "namespace": "stripe",
    "audited": false,
    "default_data": null,
    "description": "The account (if any) the charge was made on behalf of without triggering an automatic transfer. See the Connect documentation for details.",
    "extended": false,
    "immutable": false,
    "indexed": false,
    "maximum": null,
    "minimum": null,
    "pattern": null,
    "plural_name": null,
    "precision": null,
    "primary": false,
    "relationship_id": null,
    "required": false,
    "schema_id": "eea3d47c-710f-4930-b293-9b994152c190",
    "searchable": false,
    "singular_name": null,
    "sort": null,
    "translated": false,
    "type": "text",
    "unique": null,
    "rollup": null
  }
}
