{
  "type": "platform__schema_column",
  "name": "stripe__transfer",
  "data": {
    "id": "0995bd35-f77d-4cbb-883f-95c882dbcb9a",
    "name": "transfer",
    "namespace": "stripe",
    "audited": false,
    "default_data": null,
    "description": "ID of the transfer to the destination account (only applicable if the charge was created using the destination parameter).",
    "extended": false,
    "immutable": false,
    "indexed": false,
    "maximum": null,
    "minimum": null,
    "pattern": null,
    "plural_name": null,
    "precision": null,
    "primary": false,
    "relationship_id": null,
    "required": false,
    "schema_id": "eea3d47c-710f-4930-b293-9b994152c190",
    "searchable": false,
    "singular_name": null,
    "sort": null,
    "translated": false,
    "type": "text",
    "unique": null,
    "rollup": null
  }
}
