{
  "type": "platform__schema_column",
  "name": "stripe__fraud_details",
  "data": {
    "id": "686a9a02-ccc8-49f8-90e2-15d5a6141731",
    "name": "fraud_details",
    "namespace": "stripe",
    "audited": false,
    "default_data": null,
    "description": "Hash with information on fraud assessments for the charge. Assessments reported by you have the key user_report and, if set, possible values of safe and fraudulent. Assessments from Stripe have the key stripe_report and, if set, the value fraudulent.",
    "extended": false,
    "immutable": false,
    "indexed": false,
    "maximum": null,
    "minimum": null,
    "pattern": null,
    "plural_name": null,
    "precision": null,
    "primary": false,
    "relationship_id": null,
    "required": false,
    "schema_id": "eea3d47c-710f-4930-b293-9b994152c190",
    "searchable": false,
    "singular_name": null,
    "sort": null,
    "translated": false,
    "type": "json",
    "unique": null,
    "rollup": null
  }
}
