{
  "type": "platform__schema_column",
  "name": "stripe__livemode",
  "data": {
    "id": "b0ce1787-4492-4c4a-b64a-ece9ecea8b27",
    "name": "livemode",
    "namespace": "stripe",
    "audited": false,
    "default_data": null,
    "description": null,
    "extended": true,
    "immutable": false,
    "indexed": false,
    "maximum": null,
    "minimum": null,
    "pattern": null,
    "plural_name": null,
    "precision": null,
    "primary": false,
    "relationship_id": null,
    "required": false,
    "schema_id": "4c0d3bed-4ef8-4be3-8f36-70ad74d4419c",
    "searchable": false,
    "singular_name": null,
    "sort": null,
    "translated": false,
    "type": "boolean",
    "unique": null,
    "rollup": null
  }
}
