{
  "type": "platform__schema_column",
  "name": "stripe__email",
  "data": {
    "id": "443e8dc9-1907-4048-9cd4-50047950db88",
    "name": "email",
    "namespace": "stripe",
    "audited": false,
    "default_data": null,
    "description": null,
    "extended": false,
    "immutable": false,
    "indexed": false,
    "maximum": null,
    "minimum": null,
    "pattern": null,
    "plural_name": null,
    "precision": null,
    "primary": false,
    "relationship_id": null,
    "required": false,
    "schema_id": "a9b4266b-42ee-4899-b556-31202e19b225",
    "searchable": false,
    "singular_name": null,
    "sort": null,
    "translated": false,
    "type": "text",
    "unique": null,
    "rollup": null
  }
}
