{
  "type": "platform__schema_column",
  "name": "stripe__client_secret",
  "data": {
    "id": "78c9651a-ec63-4139-b83f-df89487bae2f",
    "name": "client_secret",
    "namespace": "stripe",
    "audited": false,
    "default_data": null,
    "description": null,
    "extended": true,
    "immutable": false,
    "indexed": false,
    "maximum": null,
    "minimum": null,
    "pattern": null,
    "plural_name": null,
    "precision": null,
    "primary": false,
    "relationship_id": null,
    "required": false,
    "schema_id": "4c0d3bed-4ef8-4be3-8f36-70ad74d4419c",
    "searchable": false,
    "singular_name": null,
    "sort": null,
    "translated": false,
    "type": "text",
    "unique": null,
    "rollup": null
  }
}
