{
  "type": "platform__schema_column",
  "name": "stripe__dispute",
  "data": {
    "id": "41684791-0d4c-4256-8557-e7b36bb039d7",
    "name": "dispute",
    "namespace": "stripe",
    "audited": false,
    "default_data": null,
    "description": "Details about the dispute if the charge has been disputed.",
    "extended": false,
    "immutable": false,
    "indexed": false,
    "maximum": null,
    "minimum": null,
    "pattern": null,
    "plural_name": null,
    "precision": null,
    "primary": false,
    "relationship_id": null,
    "required": false,
    "schema_id": "eea3d47c-710f-4930-b293-9b994152c190",
    "searchable": false,
    "singular_name": null,
    "sort": null,
    "translated": false,
    "type": "text",
    "unique": null,
    "rollup": null
  }
}
