{
  "type": "platform__schema",
  "name": "platform__file",
  "data": {
    "cacheable": false,
    "description": null,
    "frozen": false,
    "immutable": false,
    "internal": false,
    "metadata": false,
    "name": "file",
    "namespace": "platform",
    "plural_name": "Files",
    "restricted": false,
    "searchable": false,
    "singular_name": "File",
    "stability": null,
    "static": false
  }
}
