{
  "type": "platform__schema",
  "name": "platform__database_client",
  "data": {
    "cacheable": true,
    "description": "Represents an underlying database client connection",
    "frozen": false,
    "immutable": false,
    "internal": false,
    "metadata": false,
    "name": "database_client",
    "namespace": "platform",
    "plural_name": "Database Clients",
    "restricted": true,
    "searchable": false,
    "singular_name": "Database Client",
    "stability": null,
    "static": true
  }
}
