{
  "type": "platform__schema",
  "name": "platform__persona",
  "data": {
    "cacheable": true,
    "description": null,
    "frozen": false,
    "immutable": false,
    "internal": false,
    "metadata": true,
    "name": "persona",
    "namespace": "platform",
    "plural_name": "Personas",
    "restricted": false,
    "searchable": false,
    "singular_name": "Persona",
    "stability": "stable",
    "static": false
  }
}
