{
  "type": "platform__schema",
  "name": "platform__user_session",
  "data": {
    "cacheable": true,
    "description": null,
    "frozen": false,
    "immutable": true,
    "internal": false,
    "metadata": false,
    "name": "user_session",
    "namespace": "platform",
    "plural_name": "User Sessions",
    "restricted": true,
    "searchable": false,
    "singular_name": "User Session",
    "stability": "stable",
    "static": true
  }
}
