{
  "type": "platform__schema",
  "name": "platform__channel",
  "data": {
    "cacheable": false,
    "description": null,
    "frozen": false,
    "immutable": false,
    "internal": false,
    "metadata": false,
    "name": "channel",
    "namespace": "platform",
    "plural_name": "Channels",
    "restricted": false,
    "searchable": false,
    "singular_name": "Channel",
    "stability": null,
    "static": false
  }
}
