{
  "type": "platform__schema",
  "name": "stripe__charge",
  "data": {
    "cacheable": false,
    "description": null,
    "frozen": false,
    "immutable": false,
    "internal": false,
    "metadata": false,
    "name": "charge",
    "namespace": "stripe",
    "plural_name": null,
    "restricted": false,
    "searchable": false,
    "singular_name": null,
    "stability": null,
    "static": false
  }
}
